lab4/tb_lab4_decoder.vcd
$date
	Tue Oct 31 19:43:57 2023
$end
$version
	ModelSim Version 2020.1
$end
$timescale
	1ps
$end

$scope module tb_lab4_decoder $end
$var parameter 32 ! COLUMNS $end
$var parameter 32 " INPUTS $end
$var parameter 32 # ROWS $end
$var reg 7 $ h_code [6:0] $end
$var reg 7 % segment [6:0] $end
$var reg 4 & data_out [3:0] $end
$var reg 4 ' an [3:0] $end
$var reg 18 ( single_vector [17:0] $end
$var integer 32 ) i $end
$var integer 32 * mm_count $end

$scope module uut $end
$var reg 4 + led [3:0] $end
$var reg 4 , an [3:0] $end
$var reg 7 - cathode [6:0] $end
$var wire 1 . sw [6] $end
$var wire 1 / sw [5] $end
$var wire 1 0 sw [4] $end
$var wire 1 1 sw [3] $end
$var wire 1 2 sw [2] $end
$var wire 1 3 sw [1] $end
$var wire 1 4 sw [0] $end
$var wire 1 5 bad_bit [2] $end
$var wire 1 6 bad_bit [1] $end
$var wire 1 7 bad_bit [0] $end

$scope module u_svn $end
$var reg 7 8 seg_out [6:0] $end
$var wire 1 9 bcd_in [3] $end
$var wire 1 5 bcd_in [2] $end
$var wire 1 6 bcd_in [1] $end
$var wire 1 7 bcd_in [0] $end
$var wire 1 : display_on $end
$upscope $end

$scope module u_hdcde $end
$var reg 3 ; bad_bit [3:1] $end
$var reg 4 < decode [4:1] $end
$var wire 1 . h_code [7] $end
$var wire 1 / h_code [6] $end
$var wire 1 0 h_code [5] $end
$var wire 1 1 h_code [4] $end
$var wire 1 2 h_code [3] $end
$var wire 1 3 h_code [2] $end
$var wire 1 4 h_code [1] $end
$upscope $end
$upscope $end
$upscope $end

$scope begin std $end
$upscope $end
$enddefinitions $end
#0
$dumpvars
b0 $
b1000000 %
b0 &
b110 '
b0 +
b110 ,
b1000000 -
b1000000 8
b0 ;
b0 <
b10000000000 (
b10010 !
b111 "
b10000000 #
b0 )
b0 *
07
06
05
04
03
02
01
00
0/
0.
1:
09
$end
#20000
b1 )
b111110010000 (
b1 $
14
b1 ;
17
b1111001 8
b1111001 -
b1111001 %
#40000
b10 )
b1001001000000 (
b10 $
04
13
b11 ;
b10 ;
07
16
b100100 8
b100100 -
b100100 %
#60000
b11 )
b1101100000000 (
b11 $
14
b11 ;
17
b110000 8
b110000 -
b110000 %
#80000
b100 )
b10001100000001 (
b100 $
04
03
12
b1 <
b1 +
b1 &
#100000
b101 )
b10101001000001 (
b101 $
14
b10 ;
07
b100100 8
b100100 -
b100100 %
#120000
b110 )
b11011110010001 (
b110 $
04
13
b0 ;
b1 ;
17
06
b1111001 8
b1111001 -
b1111001 %
#140000
b111 )
b11110000000001 (
b111 $
14
b0 ;
07
b1000000 8
b1000000 -
b1000000 %
#160000
b1000 )
b100000110010000 (
b1000 $
04
03
02
11
b100 ;
b0 <
b0 +
b0 &
15
b11001 8
b11001 -
b11001 %
#180000
b1001 )
b100100100100000 (
b1001 $
14
b101 ;
17
b10010 8
b10010 -
b10010 %
#200000
b1010 )
b101000000100000 (
b1010 $
04
13
b111 ;
b110 ;
07
16
b10 8
b10 -
b10 %
#220000
b1011 )
b101111110000000 (
b1011 $
14
b111 ;
17
b1111000 8
b1111000 -
b1111000 %
#240000
b1100 )
b110011110000001 (
b1100 $
04
03
12
b1 <
b1 +
b1 &
#260000
b1101 )
b110100000100001 (
b1101 $
14
b110 ;
07
b10 8
b10 -
b10 %
#280000
b1110 )
b111000100100001 (
b1110 $
04
13
b100 ;
b101 ;
17
06
b10010 8
b10010 -
b10010 %
#300000
b1111 )
b111100110010001 (
b1111 $
14
b100 ;
07
b11001 8
b11001 -
b11001 %
#320000
b10000 )
b1000000100100010 (
b10000 $
04
03
02
01
10
b10 <
b101 ;
b10 +
b10 &
17
b10010 8
b10010 -
b10010 %
#340000
b10001 )
b1000100110010010 (
b10001 $
14
b100 ;
07
b11001 8
b11001 -
b11001 %
#360000
b10010 )
b1001011110000010 (
b10010 $
04
13
b110 ;
b111 ;
17
16
b1111000 8
b1111000 -
b1111000 %
#380000
b10011 )
b1001100000100010 (
b10011 $
14
b110 ;
07
b10 8
b10 -
b10 %
#400000
b10100 )
b1010000000100011 (
b10100 $
04
03
12
b11 <
b11 +
b11 &
#420000
b10101 )
b1010111110000011 (
b10101 $
14
b111 ;
17
b1111000 8
b1111000 -
b1111000 %
#440000
b10110 )
b1011000110010011 (
b10110 $
04
13
b101 ;
b100 ;
07
06
b11001 8
b11001 -
b11001 %
#460000
b10111 )
b1011100100100011 (
b10111 $
14
b101 ;
17
b10010 8
b10010 -
b10010 %
#480000
b11000 )
b1100011110010010 (
b11000 $
04
03
02
11
b1 ;
b10 <
b10 +
b10 &
05
b1111001 8
b1111001 -
b1111001 %
#500000
b11001 )
b1100110000000010 (
b11001 $
14
b0 ;
07
b1000000 8
b1000000 -
b1000000 %
#520000
b11010 )
b1101001100000010 (
b11010 $
04
13
b10 ;
b11 ;
17
16
b110000 8
b110000 -
b110000 %
#540000
b11011 )
b1101101001000010 (
b11011 $
14
b10 ;
07
b100100 8
b100100 -
b100100 %
#560000
b11100 )
b1110001001000011 (
b11100 $
04
03
12
b11 <
b11 +
b11 &
#580000
b11101 )
b1110101100000011 (
b11101 $
14
b11 ;
17
b110000 8
b110000 -
b110000 %
#600000
b11110 )
b1111010000000011 (
b11110 $
04
13
b1 ;
b0 ;
07
06
b1000000 8
b1000000 -
b1000000 %
#620000
b11111 )
b1111111110010011 (
b11111 $
14
b1 ;
17
b1111001 8
b1111001 -
b1111001 %
#640000
b100000 )
b10000000000100100 (
b100000 $
04
03
02
01
00
1/
b101 ;
b100 <
b111 ;
b110 ;
b100 +
b100 &
07
16
15
b10 8
b10 -
b10 %
#660000
b100001 )
b10000111110000100 (
b100001 $
14
b111 ;
17
b1111000 8
b1111000 -
b1111000 %
#680000
b100010 )
b10001000110010100 (
b100010 $
04
13
b101 ;
b100 ;
07
06
b11001 8
b11001 -
b11001 %
#700000
b100011 )
b10001100100100100 (
b100011 $
14
b101 ;
17
b10010 8
b10010 -
b10010 %
#720000
b100100 )
b10010000100100101 (
b100100 $
04
03
12
b101 <
b101 +
b101 &
#740000
b100101 )
b10010100110010101 (
b100101 $
14
b100 ;
07
b11001 8
b11001 -
b11001 %
#760000
b100110 )
b10011011110000101 (
b100110 $
04
13
b110 ;
b111 ;
17
16
b1111000 8
b1111000 -
b1111000 %
#780000
b100111 )
b10011100000100101 (
b100111 $
14
b110 ;
07
b10 8
b10 -
b10 %
#800000
b101000 )
b10100001001000100 (
b101000 $
04
03
02
11
b10 ;
b100 <
b100 +
b100 &
05
b100100 8
b100100 -
b100100 %
#820000
b101001 )
b10100101100000100 (
b101001 $
14
b11 ;
17
b110000 8
b110000 -
b110000 %
#840000
b101010 )
b10101010000000100 (
b101010 $
04
13
b1 ;
b0 ;
07
06
b1000000 8
b1000000 -
b1000000 %
#860000
b101011 )
b10101111110010100 (
b101011 $
14
b1 ;
17
b1111001 8
b1111001 -
b1111001 %
#880000
b101100 )
b10110011110010101 (
b101100 $
04
03
12
b101 <
b101 +
b101 &
#900000
b101101 )
b10110110000000101 (
b101101 $
14
b0 ;
07
b1000000 8
b1000000 -
b1000000 %
#920000
b101110 )
b10111001100000101 (
b101110 $
04
13
b10 ;
b11 ;
17
16
b110000 8
b110000 -
b110000 %
#940000
b101111 )
b10111101001000101 (
b101111 $
14
b10 ;
07
b100100 8
b100100 -
b100100 %
#960000
b110000 )
b11000001100000110 (
b110000 $
04
03
02
01
10
b110 <
b11 ;
b110 +
b110 &
17
b110000 8
b110000 -
b110000 %
#980000
b110001 )
b11000101001000110 (
b110001 $
14
b10 ;
07
b100100 8
b100100 -
b100100 %
#1000000
b110010 )
b11001011110010110 (
b110010 $
04
13
b0 ;
b1 ;
17
06
b1111001 8
b1111001 -
b1111001 %
#1020000
b110011 )
b11001110000000110 (
b110011 $
14
b0 ;
07
b1000000 8
b1000000 -
b1000000 %
#1040000
b110100 )
b11010010000000111 (
b110100 $
04
03
12
b111 <
b111 +
b111 &
#1060000
b110101 )
b11010111110010111 (
b110101 $
14
b1 ;
17
b1111001 8
b1111001 -
b1111001 %
#1080000
b110110 )
b11011001001000111 (
b110110 $
04
13
b11 ;
b10 ;
07
16
b100100 8
b100100 -
b100100 %
#1100000
b110111 )
b11011101100000111 (
b110111 $
14
b11 ;
17
b110000 8
b110000 -
b110000 %
#1120000
b111000 )
b11100011110000110 (
b111000 $
04
03
02
11
b111 ;
b110 <
b110 +
b110 &
15
b1111000 8
b1111000 -
b1111000 %
#1140000
b111001 )
b11100100000100110 (
b111001 $
14
b110 ;
07
b10 8
b10 -
b10 %
#1160000
b111010 )
b11101000100100110 (
b111010 $
04
13
b100 ;
b101 ;
17
06
b10010 8
b10010 -
b10010 %
#1180000
b111011 )
b11101100110010110 (
b111011 $
14
b100 ;
07
b11001 8
b11001 -
b11001 %
#1200000
b111100 )
b11110000110010111 (
b111100 $
04
03
12
b111 <
b111 +
b111 &
#1220000
b111101 )
b11110100100100111 (
b111101 $
14
b101 ;
17
b10010 8
b10010 -
b10010 %
#1240000
b111110 )
b11111000000100111 (
b111110 $
04
13
b111 ;
b110 ;
07
16
b10 8
b10 -
b10 %
#1260000
b111111 )
b11111111110000111 (
b111111 $
14
b111 ;
17
b1111000 8
b1111000 -
b1111000 %
#1280000
b1000000 )
b100000011110001000 (
b1000000 $
04
03
02
01
00
0/
1.
b1000 <
b1000 +
b1000 &
#1300000
b1000001 )
b100000100000101000 (
b1000001 $
14
b110 ;
07
b10 8
b10 -
b10 %
#1320000
b1000010 )
b100001000100101000 (
b1000010 $
04
13
b100 ;
b101 ;
17
06
b10010 8
b10010 -
b10010 %
#1340000
b1000011 )
b100001100110011000 (
b1000011 $
14
b100 ;
07
b11001 8
b11001 -
b11001 %
#1360000
b1000100 )
b100010000110011001 (
b1000100 $
04
03
12
b1001 <
b1001 +
b1001 &
#1380000
b1000101 )
b100010100100101001 (
b1000101 $
14
b101 ;
17
b10010 8
b10010 -
b10010 %
#1400000
b1000110 )
b100011000000101001 (
b1000110 $
04
13
b111 ;
b110 ;
07
16
b10 8
b10 -
b10 %
#1420000
b1000111 )
b100011111110001001 (
b1000111 $
14
b111 ;
17
b1111000 8
b1111000 -
b1111000 %
#1440000
b1001000 )
b100100001100001000 (
b1001000 $
04
03
02
11
b11 ;
b1000 <
b1000 +
b1000 &
05
b110000 8
b110000 -
b110000 %
#1460000
b1001001 )
b100100101001001000 (
b1001001 $
14
b10 ;
07
b100100 8
b100100 -
b100100 %
#1480000
b1001010 )
b100101011110011000 (
b1001010 $
04
13
b0 ;
b1 ;
17
06
b1111001 8
b1111001 -
b1111001 %
#1500000
b1001011 )
b100101110000001000 (
b1001011 $
14
b0 ;
07
b1000000 8
b1000000 -
b1000000 %
#1520000
b1001100 )
b100110010000001001 (
b1001100 $
04
03
12
b1001 <
b1001 +
b1001 &
#1540000
b1001101 )
b100110111110011001 (
b1001101 $
14
b1 ;
17
b1111001 8
b1111001 -
b1111001 %
#1560000
b1001110 )
b100111001001001001 (
b1001110 $
04
13
b11 ;
b10 ;
07
16
b100100 8
b100100 -
b100100 %
#1580000
b1001111 )
b100111101100001001 (
b1001111 $
14
b11 ;
17
b110000 8
b110000 -
b110000 %
#1600000
b1010000 )
b101000001001001010 (
b1010000 $
04
03
02
01
10
b1010 <
b10 ;
b1010 +
b1010 &
07
b100100 8
b100100 -
b100100 %
#1620000
b1010001 )
b101000101100001010 (
b1010001 $
14
b11 ;
17
b110000 8
b110000 -
b110000 %
#1640000
b1010010 )
b101001010000001010 (
b1010010 $
04
13
b1 ;
b0 ;
07
06
b1000000 8
b1000000 -
b1000000 %
#1660000
b1010011 )
b101001111110011010 (
b1010011 $
14
b1 ;
17
b1111001 8
b1111001 -
b1111001 %
#1680000
b1010100 )
b101010011110011011 (
b1010100 $
04
03
12
b1011 <
b1011 +
b1011 &
#1700000
b1010101 )
b101010110000001011 (
b1010101 $
14
b0 ;
07
b1000000 8
b1000000 -
b1000000 %
#1720000
b1010110 )
b101011001100001011 (
b1010110 $
04
13
b10 ;
b11 ;
17
16
b110000 8
b110000 -
b110000 %
#1740000
b1010111 )
b101011101001001011 (
b1010111 $
14
b10 ;
07
b100100 8
b100100 -
b100100 %
#1760000
b1011000 )
b101100000000101010 (
b1011000 $
04
03
02
11
b110 ;
b1010 <
b1010 +
b1010 &
15
b10 8
b10 -
b10 %
#1780000
b1011001 )
b101100111110001010 (
b1011001 $
14
b111 ;
17
b1111000 8
b1111000 -
b1111000 %
#1800000
b1011010 )
b101101000110011010 (
b1011010 $
04
13
b101 ;
b100 ;
07
06
b11001 8
b11001 -
b11001 %
#1820000
b1011011 )
b101101100100101010 (
b1011011 $
14
b101 ;
17
b10010 8
b10010 -
b10010 %
#1840000
b1011100 )
b101110000100101011 (
b1011100 $
04
03
12
b1011 <
b1011 +
b1011 &
#1860000
b1011101 )
b101110100110011011 (
b1011101 $
14
b100 ;
07
b11001 8
b11001 -
b11001 %
#1880000
b1011110 )
b101111011110001011 (
b1011110 $
04
13
b110 ;
b111 ;
17
16
b1111000 8
b1111000 -
b1111000 %
#1900000
b1011111 )
b101111100000101011 (
b1011111 $
14
b110 ;
07
b10 8
b10 -
b10 %
#1920000
b1100000 )
b110000011110011100 (
b1100000 $
04
03
02
01
00
1/
b10 ;
b1100 <
b0 ;
b1 ;
b1100 +
b1100 &
17
06
05
b1111001 8
b1111001 -
b1111001 %
#1940000
b1100001 )
b110000110000001100 (
b1100001 $
14
b0 ;
07
b1000000 8
b1000000 -
b1000000 %
#1960000
b1100010 )
b110001001100001100 (
b1100010 $
04
13
b10 ;
b11 ;
17
16
b110000 8
b110000 -
b110000 %
#1980000
b1100011 )
b110001101001001100 (
b1100011 $
14
b10 ;
07
b100100 8
b100100 -
b100100 %
#2000000
b1100100 )
b110010001001001101 (
b1100100 $
04
03
12
b1101 <
b1101 +
b1101 &
#2020000
b1100101 )
b110010101100001101 (
b1100101 $
14
b11 ;
17
b110000 8
b110000 -
b110000 %
#2040000
b1100110 )
b110011010000001101 (
b1100110 $
04
13
b1 ;
b0 ;
07
06
b1000000 8
b1000000 -
b1000000 %
#2060000
b1100111 )
b110011111110011101 (
b1100111 $
14
b1 ;
17
b1111001 8
b1111001 -
b1111001 %
#2080000
b1101000 )
b110100000100101100 (
b1101000 $
04
03
02
11
b101 ;
b1100 <
b1100 +
b1100 &
15
b10010 8
b10010 -
b10010 %
#2100000
b1101001 )
b110100100110011100 (
b1101001 $
14
b100 ;
07
b11001 8
b11001 -
b11001 %
#2120000
b1101010 )
b110101011110001100 (
b1101010 $
04
13
b110 ;
b111 ;
17
16
b1111000 8
b1111000 -
b1111000 %
#2140000
b1101011 )
b110101100000101100 (
b1101011 $
14
b110 ;
07
b10 8
b10 -
b10 %
#2160000
b1101100 )
b110110000000101101 (
b1101100 $
04
03
12
b1101 <
b1101 +
b1101 &
#2180000
b1101101 )
b110110111110001101 (
b1101101 $
14
b111 ;
17
b1111000 8
b1111000 -
b1111000 %
#2200000
b1101110 )
b110111000110011101 (
b1101110 $
04
13
b101 ;
b100 ;
07
06
b11001 8
b11001 -
b11001 %
#2220000
b1101111 )
b110111100100101101 (
b1101111 $
14
b101 ;
17
b10010 8
b10010 -
b10010 %
#2240000
b1110000 )
b111000000110011110 (
b1110000 $
04
03
02
01
10
b1110 <
b100 ;
b1110 +
b1110 &
07
b11001 8
b11001 -
b11001 %
#2260000
b1110001 )
b111000100100101110 (
b1110001 $
14
b101 ;
17
b10010 8
b10010 -
b10010 %
#2280000
b1110010 )
b111001000000101110 (
b1110010 $
04
13
b111 ;
b110 ;
07
16
b10 8
b10 -
b10 %
#2300000
b1110011 )
b111001111110001110 (
b1110011 $
14
b111 ;
17
b1111000 8
b1111000 -
b1111000 %
#2320000
b1110100 )
b111010011110001111 (
b1110100 $
04
03
12
b1111 <
b1111 +
b1111 &
#2340000
b1110101 )
b111010100000101111 (
b1110101 $
14
b110 ;
07
b10 8
b10 -
b10 %
#2360000
b1110110 )
b111011000100101111 (
b1110110 $
04
13
b100 ;
b101 ;
17
06
b10010 8
b10010 -
b10010 %
#2380000
b1110111 )
b111011100110011111 (
b1110111 $
14
b100 ;
07
b11001 8
b11001 -
b11001 %
#2400000
b1111000 )
b111100010000001110 (
b1111000 $
04
03
02
11
b0 ;
b1110 <
b1110 +
b1110 &
05
b1000000 8
b1000000 -
b1000000 %
#2420000
b1111001 )
b111100111110011110 (
b1111001 $
14
b1 ;
17
b1111001 8
b1111001 -
b1111001 %
#2440000
b1111010 )
b111101001001001110 (
b1111010 $
04
13
b11 ;
b10 ;
07
16
b100100 8
b100100 -
b100100 %
#2460000
b1111011 )
b111101101100001110 (
b1111011 $
14
b11 ;
17
b110000 8
b110000 -
b110000 %
#2480000
b1111100 )
b111110001100001111 (
b1111100 $
04
03
12
b1111 <
b1111 +
b1111 &
#2500000
b1111101 )
b111110101001001111 (
b1111101 $
14
b10 ;
07
b100100 8
b100100 -
b100100 %
#2520000
b1111110 )
b111111011110011111 (
b1111110 $
04
13
b0 ;
b1 ;
17
06
b1111001 8
b1111001 -
b1111001 %
#2540000
b1111111 )
b111111110000001111 (
b1111111 $
14
b0 ;
07
b1000000 8
b1000000 -
b1000000 %
#2560000
b10000000 )
