lab5/tb_comb_shifters.vcd
$date
	Tue Nov 14 18:25:07 2023
$end
$version
	ModelSim Version 2020.1
$end
$timescale
	1ps
$end

$scope module tb_comb_shifters $end
$var parameter 32 ! COLUMNS $end
$var parameter 32 " INPUTS $end
$var parameter 32 # ROWS $end
$var reg 3 $ select [2:0] $end
$var reg 8 % data_in [7:0] $end
$var reg 8 & data_out [7:0] $end
$var reg 19 ' single_vector [18:0] $end
$var integer 32 ( i $end
$var integer 32 ) mm_count $end

$scope module uut $end
$var reg 8 * data_out [7:0] $end
$var wire 1 + select [2] $end
$var wire 1 , select [1] $end
$var wire 1 - select [0] $end
$var wire 1 . data_in [7] $end
$var wire 1 / data_in [6] $end
$var wire 1 0 data_in [5] $end
$var wire 1 1 data_in [4] $end
$var wire 1 2 data_in [3] $end
$var wire 1 3 data_in [2] $end
$var wire 1 4 data_in [1] $end
$var wire 1 5 data_in [0] $end
$upscope $end
$upscope $end

$scope begin std $end
$upscope $end
$enddefinitions $end
#0
$dumpvars
b0 $
b0 %
b0 &
b0 *
b0 '
b10011 !
b1011 "
b100000000000 #
b0 (
b0 )
0-
0,
0+
05
04
03
02
01
00
0/
0.
$end
#20000
b1 (
b100000001 '
b1 %
15
b1 *
b1 &
#40000
b10 (
b1000000010 '
b10 %
05
14
b10 *
b10 &
#60000
b11 (
b1100000011 '
b11 %
15
b11 *
b11 &
#80000
b100 (
b10000000100 '
b100 %
05
04
13
b100 *
b100 &
#100000
b101 (
b10100000101 '
b101 %
15
b101 *
b101 &
#120000
b110 (
b11000000110 '
b110 %
05
14
b110 *
b110 &
#140000
b111 (
b11100000111 '
b111 %
15
b111 *
b111 &
#160000
b1000 (
b100000001000 '
b1000 %
05
04
03
12
b1000 *
b1000 &
#180000
b1001 (
b100100001001 '
b1001 %
15
b1001 *
b1001 &
#200000
b1010 (
b101000001010 '
b1010 %
05
14
b1010 *
b1010 &
#220000
b1011 (
b101100001011 '
b1011 %
15
b1011 *
b1011 &
#240000
b1100 (
b110000001100 '
b1100 %
05
04
13
b1100 *
b1100 &
#260000
b1101 (
b110100001101 '
b1101 %
15
b1101 *
b1101 &
#280000
b1110 (
b111000001110 '
b1110 %
05
14
b1110 *
b1110 &
#300000
b1111 (
b111100001111 '
b1111 %
15
b1111 *
b1111 &
#320000
b10000 (
b1000000010000 '
b10000 %
05
04
03
02
11
b10000 *
b10000 &
#340000
b10001 (
b1000100010001 '
b10001 %
15
b10001 *
b10001 &
#360000
b10010 (
b1001000010010 '
b10010 %
05
14
b10010 *
b10010 &
#380000
b10011 (
b1001100010011 '
b10011 %
15
b10011 *
b10011 &
#400000
b10100 (
b1010000010100 '
b10100 %
05
04
13
b10100 *
b10100 &
#420000
b10101 (
b1010100010101 '
b10101 %
15
b10101 *
b10101 &
#440000
b10110 (
b1011000010110 '
b10110 %
05
14
b10110 *
b10110 &
#460000
b10111 (
b1011100010111 '
b10111 %
15
b10111 *
b10111 &
#480000
b11000 (
b1100000011000 '
b11000 %
05
04
03
12
b11000 *
b11000 &
#500000
b11001 (
b1100100011001 '
b11001 %
15
b11001 *
b11001 &
#520000
b11010 (
b1101000011010 '
b11010 %
05
14
b11010 *
b11010 &
#540000
b11011 (
b1101100011011 '
b11011 %
15
b11011 *
b11011 &
#560000
b11100 (
b1110000011100 '
b11100 %
05
04
13
b11100 *
b11100 &
#580000
b11101 (
b1110100011101 '
b11101 %
15
b11101 *
b11101 &
#600000
b11110 (
b1111000011110 '
b11110 %
05
14
b11110 *
b11110 &
#620000
b11111 (
b1111100011111 '
b11111 %
15
b11111 *
b11111 &
#640000
b100000 (
b10000000100000 '
b100000 %
05
04
03
02
01
10
b100000 *
b100000 &
#660000
b100001 (
b10000100100001 '
b100001 %
15
b100001 *
b100001 &
#680000
b100010 (
b10001000100010 '
b100010 %
05
14
b100010 *
b100010 &
#700000
b100011 (
b10001100100011 '
b100011 %
15
b100011 *
b100011 &
#720000
b100100 (
b10010000100100 '
b100100 %
05
04
13
b100100 *
b100100 &
#740000
b100101 (
b10010100100101 '
b100101 %
15
b100101 *
b100101 &
#760000
b100110 (
b10011000100110 '
b100110 %
05
14
b100110 *
b100110 &
#780000
b100111 (
b10011100100111 '
b100111 %
15
b100111 *
b100111 &
#800000
b101000 (
b10100000101000 '
b101000 %
05
04
03
12
b101000 *
b101000 &
#820000
b101001 (
b10100100101001 '
b101001 %
15
b101001 *
b101001 &
#840000
b101010 (
b10101000101010 '
b101010 %
05
14
b101010 *
b101010 &
#860000
b101011 (
b10101100101011 '
b101011 %
15
b101011 *
b101011 &
#880000
b101100 (
b10110000101100 '
b101100 %
05
04
13
b101100 *
b101100 &
#900000
b101101 (
b10110100101101 '
b101101 %
15
b101101 *
b101101 &
#920000
b101110 (
b10111000101110 '
b101110 %
05
14
b101110 *
b101110 &
#940000
b101111 (
b10111100101111 '
b101111 %
15
b101111 *
b101111 &
#960000
b110000 (
b11000000110000 '
b110000 %
05
04
03
02
11
b110000 *
b110000 &
#980000
b110001 (
b11000100110001 '
b110001 %
15
b110001 *
b110001 &
#1000000
b110010 (
b11001000110010 '
b110010 %
05
14
b110010 *
b110010 &
#1020000
b110011 (
b11001100110011 '
b110011 %
15
b110011 *
b110011 &
#1040000
b110100 (
b11010000110100 '
b110100 %
05
04
13
b110100 *
b110100 &
#1060000
b110101 (
b11010100110101 '
b110101 %
15
b110101 *
b110101 &
#1080000
b110110 (
b11011000110110 '
b110110 %
05
14
b110110 *
b110110 &
#1100000
b110111 (
b11011100110111 '
b110111 %
15
b110111 *
b110111 &
#1120000
b111000 (
b11100000111000 '
b111000 %
05
04
03
12
b111000 *
b111000 &
#1140000
b111001 (
b11100100111001 '
b111001 %
15
b111001 *
b111001 &
#1160000
b111010 (
b11101000111010 '
b111010 %
05
14
b111010 *
b111010 &
#1180000
b111011 (
b11101100111011 '
b111011 %
15
b111011 *
b111011 &
#1200000
b111100 (
b11110000111100 '
b111100 %
05
04
13
b111100 *
b111100 &
#1220000
b111101 (
b11110100111101 '
b111101 %
15
b111101 *
b111101 &
#1240000
b111110 (
b11111000111110 '
b111110 %
05
14
b111110 *
b111110 &
#1260000
b111111 (
b11111100111111 '
b111111 %
15
b111111 *
b111111 &
#1280000
b1000000 (
b100000001000000 '
b1000000 %
05
04
03
02
01
00
1/
b1000000 *
b1000000 &
#1300000
b1000001 (
b100000101000001 '
b1000001 %
15
b1000001 *
b1000001 &
#1320000
b1000010 (
b100001001000010 '
b1000010 %
05
14
b1000010 *
b1000010 &
#1340000
b1000011 (
b100001101000011 '
b1000011 %
15
b1000011 *
b1000011 &
#1360000
b1000100 (
b100010001000100 '
b1000100 %
05
04
13
b1000100 *
b1000100 &
#1380000
b1000101 (
b100010101000101 '
b1000101 %
15
b1000101 *
b1000101 &
#1400000
b1000110 (
b100011001000110 '
b1000110 %
05
14
b1000110 *
b1000110 &
#1420000
b1000111 (
b100011101000111 '
b1000111 %
15
b1000111 *
b1000111 &
#1440000
b1001000 (
b100100001001000 '
b1001000 %
05
04
03
12
b1001000 *
b1001000 &
#1460000
b1001001 (
b100100101001001 '
b1001001 %
15
b1001001 *
b1001001 &
#1480000
b1001010 (
b100101001001010 '
b1001010 %
05
14
b1001010 *
b1001010 &
#1500000
b1001011 (
b100101101001011 '
b1001011 %
15
b1001011 *
b1001011 &
#1520000
b1001100 (
b100110001001100 '
b1001100 %
05
04
13
b1001100 *
b1001100 &
#1540000
b1001101 (
b100110101001101 '
b1001101 %
15
b1001101 *
b1001101 &
#1560000
b1001110 (
b100111001001110 '
b1001110 %
05
14
b1001110 *
b1001110 &
#1580000
b1001111 (
b100111101001111 '
b1001111 %
15
b1001111 *
b1001111 &
#1600000
b1010000 (
b101000001010000 '
b1010000 %
05
04
03
02
11
b1010000 *
b1010000 &
#1620000
b1010001 (
b101000101010001 '
b1010001 %
15
b1010001 *
b1010001 &
#1640000
b1010010 (
b101001001010010 '
b1010010 %
05
14
b1010010 *
b1010010 &
#1660000
b1010011 (
b101001101010011 '
b1010011 %
15
b1010011 *
b1010011 &
#1680000
b1010100 (
b101010001010100 '
b1010100 %
05
04
13
b1010100 *
b1010100 &
#1700000
b1010101 (
b101010101010101 '
b1010101 %
15
b1010101 *
b1010101 &
#1720000
b1010110 (
b101011001010110 '
b1010110 %
05
14
b1010110 *
b1010110 &
#1740000
b1010111 (
b101011101010111 '
b1010111 %
15
b1010111 *
b1010111 &
#1760000
b1011000 (
b101100001011000 '
b1011000 %
05
04
03
12
b1011000 *
b1011000 &
#1780000
b1011001 (
b101100101011001 '
b1011001 %
15
b1011001 *
b1011001 &
#1800000
b1011010 (
b101101001011010 '
b1011010 %
05
14
b1011010 *
b1011010 &
#1820000
b1011011 (
b101101101011011 '
b1011011 %
15
b1011011 *
b1011011 &
#1840000
b1011100 (
b101110001011100 '
b1011100 %
05
04
13
b1011100 *
b1011100 &
#1860000
b1011101 (
b101110101011101 '
b1011101 %
15
b1011101 *
b1011101 &
#1880000
b1011110 (
b101111001011110 '
b1011110 %
05
14
b1011110 *
b1011110 &
#1900000
b1011111 (
b101111101011111 '
b1011111 %
15
b1011111 *
b1011111 &
#1920000
b1100000 (
b110000001100000 '
b1100000 %
05
04
03
02
01
10
b1100000 *
b1100000 &
#1940000
b1100001 (
b110000101100001 '
b1100001 %
15
b1100001 *
b1100001 &
#1960000
b1100010 (
b110001001100010 '
b1100010 %
05
14
b1100010 *
b1100010 &
#1980000
b1100011 (
b110001101100011 '
b1100011 %
15
b1100011 *
b1100011 &
#2000000
b1100100 (
b110010001100100 '
b1100100 %
05
04
13
b1100100 *
b1100100 &
#2020000
b1100101 (
b110010101100101 '
b1100101 %
15
b1100101 *
b1100101 &
#2040000
b1100110 (
b110011001100110 '
b1100110 %
05
14
b1100110 *
b1100110 &
#2060000
b1100111 (
b110011101100111 '
b1100111 %
15
b1100111 *
b1100111 &
#2080000
b1101000 (
b110100001101000 '
b1101000 %
05
04
03
12
b1101000 *
b1101000 &
#2100000
b1101001 (
b110100101101001 '
b1101001 %
15
b1101001 *
b1101001 &
#2120000
b1101010 (
b110101001101010 '
b1101010 %
05
14
b1101010 *
b1101010 &
#2140000
b1101011 (
b110101101101011 '
b1101011 %
15
b1101011 *
b1101011 &
#2160000
b1101100 (
b110110001101100 '
b1101100 %
05
04
13
b1101100 *
b1101100 &
#2180000
b1101101 (
b110110101101101 '
b1101101 %
15
b1101101 *
b1101101 &
#2200000
b1101110 (
b110111001101110 '
b1101110 %
05
14
b1101110 *
b1101110 &
#2220000
b1101111 (
b110111101101111 '
b1101111 %
15
b1101111 *
b1101111 &
#2240000
b1110000 (
b111000001110000 '
b1110000 %
05
04
03
02
11
b1110000 *
b1110000 &
#2260000
b1110001 (
b111000101110001 '
b1110001 %
15
b1110001 *
b1110001 &
#2280000
b1110010 (
b111001001110010 '
b1110010 %
05
14
b1110010 *
b1110010 &
#2300000
b1110011 (
b111001101110011 '
b1110011 %
15
b1110011 *
b1110011 &
#2320000
b1110100 (
b111010001110100 '
b1110100 %
05
04
13
b1110100 *
b1110100 &
#2340000
b1110101 (
b111010101110101 '
b1110101 %
15
b1110101 *
b1110101 &
#2360000
b1110110 (
b111011001110110 '
b1110110 %
05
14
b1110110 *
b1110110 &
#2380000
b1110111 (
b111011101110111 '
b1110111 %
15
b1110111 *
b1110111 &
#2400000
b1111000 (
b111100001111000 '
b1111000 %
05
04
03
12
b1111000 *
b1111000 &
#2420000
b1111001 (
b111100101111001 '
b1111001 %
15
b1111001 *
b1111001 &
#2440000
b1111010 (
b111101001111010 '
b1111010 %
05
14
b1111010 *
b1111010 &
#2460000
b1111011 (
b111101101111011 '
b1111011 %
15
b1111011 *
b1111011 &
#2480000
b1111100 (
b111110001111100 '
b1111100 %
05
04
13
b1111100 *
b1111100 &
#2500000
b1111101 (
b111110101111101 '
b1111101 %
15
b1111101 *
b1111101 &
#2520000
b1111110 (
b111111001111110 '
b1111110 %
05
14
b1111110 *
b1111110 &
#2540000
b1111111 (
b111111101111111 '
b1111111 %
15
b1111111 *
b1111111 &
#2560000
b10000000 (
b1000000010000000 '
b10000000 %
05
04
03
02
01
00
0/
1.
b10000000 *
b10000000 &
#2580000
b10000001 (
b1000000110000001 '
b10000001 %
15
b10000001 *
b10000001 &
#2600000
b10000010 (
b1000001010000010 '
b10000010 %
05
14
b10000010 *
b10000010 &
#2620000
b10000011 (
b1000001110000011 '
b10000011 %
15
b10000011 *
b10000011 &
#2640000
b10000100 (
b1000010010000100 '
b10000100 %
05
04
13
b10000100 *
b10000100 &
#2660000
b10000101 (
b1000010110000101 '
b10000101 %
15
b10000101 *
b10000101 &
#2680000
b10000110 (
b1000011010000110 '
b10000110 %
05
14
b10000110 *
b10000110 &
#2700000
b10000111 (
b1000011110000111 '
b10000111 %
15
b10000111 *
b10000111 &
#2720000
b10001000 (
b1000100010001000 '
b10001000 %
05
04
03
12
b10001000 *
b10001000 &
#2740000
b10001001 (
b1000100110001001 '
b10001001 %
15
b10001001 *
b10001001 &
#2760000
b10001010 (
b1000101010001010 '
b10001010 %
05
14
b10001010 *
b10001010 &
#2780000
b10001011 (
b1000101110001011 '
b10001011 %
15
b10001011 *
b10001011 &
#2800000
b10001100 (
b1000110010001100 '
b10001100 %
05
04
13
b10001100 *
b10001100 &
#2820000
b10001101 (
b1000110110001101 '
b10001101 %
15
b10001101 *
b10001101 &
#2840000
b10001110 (
b1000111010001110 '
b10001110 %
05
14
b10001110 *
b10001110 &
#2860000
b10001111 (
b1000111110001111 '
b10001111 %
15
b10001111 *
b10001111 &
#2880000
b10010000 (
b1001000010010000 '
b10010000 %
05
04
03
02
11
b10010000 *
b10010000 &
#2900000
b10010001 (
b1001000110010001 '
b10010001 %
15
b10010001 *
b10010001 &
#2920000
b10010010 (
b1001001010010010 '
b10010010 %
05
14
b10010010 *
b10010010 &
#2940000
b10010011 (
b1001001110010011 '
b10010011 %
15
b10010011 *
b10010011 &
#2960000
b10010100 (
b1001010010010100 '
b10010100 %
05
04
13
b10010100 *
b10010100 &
#2980000
b10010101 (
b1001010110010101 '
b10010101 %
15
b10010101 *
b10010101 &
#3000000
b10010110 (
b1001011010010110 '
b10010110 %
05
14
b10010110 *
b10010110 &
#3020000
b10010111 (
b1001011110010111 '
b10010111 %
15
b10010111 *
b10010111 &
#3040000
b10011000 (
b1001100010011000 '
b10011000 %
05
04
03
12
b10011000 *
b10011000 &
#3060000
b10011001 (
b1001100110011001 '
b10011001 %
15
b10011001 *
b10011001 &
#3080000
b10011010 (
b1001101010011010 '
b10011010 %
05
14
b10011010 *
b10011010 &
#3100000
b10011011 (
b1001101110011011 '
b10011011 %
15
b10011011 *
b10011011 &
#3120000
b10011100 (
b1001110010011100 '
b10011100 %
05
04
13
b10011100 *
b10011100 &
#3140000
b10011101 (
b1001110110011101 '
b10011101 %
15
b10011101 *
b10011101 &
#3160000
b10011110 (
b1001111010011110 '
b10011110 %
05
14
b10011110 *
b10011110 &
#3180000
b10011111 (
b1001111110011111 '
b10011111 %
15
b10011111 *
b10011111 &
#3200000
b10100000 (
b1010000010100000 '
b10100000 %
05
04
03
02
01
10
b10100000 *
b10100000 &
#3220000
b10100001 (
b1010000110100001 '
b10100001 %
15
b10100001 *
b10100001 &
#3240000
b10100010 (
b1010001010100010 '
b10100010 %
05
14
b10100010 *
b10100010 &
#3260000
b10100011 (
b1010001110100011 '
b10100011 %
15
b10100011 *
b10100011 &
#3280000
b10100100 (
b1010010010100100 '
b10100100 %
05
04
13
b10100100 *
b10100100 &
#3300000
b10100101 (
b1010010110100101 '
b10100101 %
15
b10100101 *
b10100101 &
#3320000
b10100110 (
b1010011010100110 '
b10100110 %
05
14
b10100110 *
b10100110 &
#3340000
b10100111 (
b1010011110100111 '
b10100111 %
15
b10100111 *
b10100111 &
#3360000
b10101000 (
b1010100010101000 '
b10101000 %
05
04
03
12
b10101000 *
b10101000 &
#3380000
b10101001 (
b1010100110101001 '
b10101001 %
15
b10101001 *
b10101001 &
#3400000
b10101010 (
b1010101010101010 '
b10101010 %
05
14
b10101010 *
b10101010 &
#3420000
b10101011 (
b1010101110101011 '
b10101011 %
15
b10101011 *
b10101011 &
#3440000
b10101100 (
b1010110010101100 '
b10101100 %
05
04
13
b10101100 *
b10101100 &
#3460000
b10101101 (
b1010110110101101 '
b10101101 %
15
b10101101 *
b10101101 &
#3480000
b10101110 (
b1010111010101110 '
b10101110 %
05
14
b10101110 *
b10101110 &
#3500000
b10101111 (
b1010111110101111 '
b10101111 %
15
b10101111 *
b10101111 &
#3520000
b10110000 (
b1011000010110000 '
b10110000 %
05
04
03
02
11
b10110000 *
b10110000 &
#3540000
b10110001 (
b1011000110110001 '
b10110001 %
15
b10110001 *
b10110001 &
#3560000
b10110010 (
b1011001010110010 '
b10110010 %
05
14
b10110010 *
b10110010 &
#3580000
b10110011 (
b1011001110110011 '
b10110011 %
15
b10110011 *
b10110011 &
#3600000
b10110100 (
b1011010010110100 '
b10110100 %
05
04
13
b10110100 *
b10110100 &
#3620000
b10110101 (
b1011010110110101 '
b10110101 %
15
b10110101 *
b10110101 &
#3640000
b10110110 (
b1011011010110110 '
b10110110 %
05
14
b10110110 *
b10110110 &
#3660000
b10110111 (
b1011011110110111 '
b10110111 %
15
b10110111 *
b10110111 &
#3680000
b10111000 (
b1011100010111000 '
b10111000 %
05
04
03
12
b10111000 *
b10111000 &
#3700000
b10111001 (
b1011100110111001 '
b10111001 %
15
b10111001 *
b10111001 &
#3720000
b10111010 (
b1011101010111010 '
b10111010 %
05
14
b10111010 *
b10111010 &
#3740000
b10111011 (
b1011101110111011 '
b10111011 %
15
b10111011 *
b10111011 &
#3760000
b10111100 (
b1011110010111100 '
b10111100 %
05
04
13
b10111100 *
b10111100 &
#3780000
b10111101 (
b1011110110111101 '
b10111101 %
15
b10111101 *
b10111101 &
#3800000
b10111110 (
b1011111010111110 '
b10111110 %
05
14
b10111110 *
b10111110 &
#3820000
b10111111 (
b1011111110111111 '
b10111111 %
15
b10111111 *
b10111111 &
#3840000
b11000000 (
b1100000011000000 '
b11000000 %
05
04
03
02
01
00
1/
b11000000 *
b11000000 &
#3860000
b11000001 (
b1100000111000001 '
b11000001 %
15
b11000001 *
b11000001 &
#3880000
b11000010 (
b1100001011000010 '
b11000010 %
05
14
b11000010 *
b11000010 &
#3900000
b11000011 (
b1100001111000011 '
b11000011 %
15
b11000011 *
b11000011 &
#3920000
b11000100 (
b1100010011000100 '
b11000100 %
05
04
13
b11000100 *
b11000100 &
#3940000
b11000101 (
b1100010111000101 '
b11000101 %
15
b11000101 *
b11000101 &
#3960000
b11000110 (
b1100011011000110 '
b11000110 %
05
14
b11000110 *
b11000110 &
#3980000
b11000111 (
b1100011111000111 '
b11000111 %
15
b11000111 *
b11000111 &
#4000000
b11001000 (
b1100100011001000 '
b11001000 %
05
04
03
12
b11001000 *
b11001000 &
#4020000
b11001001 (
b1100100111001001 '
b11001001 %
15
b11001001 *
b11001001 &
#4040000
b11001010 (
b1100101011001010 '
b11001010 %
05
14
b11001010 *
b11001010 &
#4060000
b11001011 (
b1100101111001011 '
b11001011 %
15
b11001011 *
b11001011 &
#4080000
b11001100 (
b1100110011001100 '
b11001100 %
05
04
13
b11001100 *
b11001100 &
#4100000
b11001101 (
b1100110111001101 '
b11001101 %
15
b11001101 *
b11001101 &
#4120000
b11001110 (
b1100111011001110 '
b11001110 %
05
14
b11001110 *
b11001110 &
#4140000
b11001111 (
b1100111111001111 '
b11001111 %
15
b11001111 *
b11001111 &
#4160000
b11010000 (
b1101000011010000 '
b11010000 %
05
04
03
02
11
b11010000 *
b11010000 &
#4180000
b11010001 (
b1101000111010001 '
b11010001 %
15
b11010001 *
b11010001 &
#4200000
b11010010 (
b1101001011010010 '
b11010010 %
05
14
b11010010 *
b11010010 &
#4220000
b11010011 (
b1101001111010011 '
b11010011 %
15
b11010011 *
b11010011 &
#4240000
b11010100 (
b1101010011010100 '
b11010100 %
05
04
13
b11010100 *
b11010100 &
#4260000
b11010101 (
b1101010111010101 '
b11010101 %
15
b11010101 *
b11010101 &
#4280000
b11010110 (
b1101011011010110 '
b11010110 %
05
14
b11010110 *
b11010110 &
#4300000
b11010111 (
b1101011111010111 '
b11010111 %
15
b11010111 *
b11010111 &
#4320000
b11011000 (
b1101100011011000 '
b11011000 %
05
04
03
12
b11011000 *
b11011000 &
#4340000
b11011001 (
b1101100111011001 '
b11011001 %
15
b11011001 *
b11011001 &
#4360000
b11011010 (
b1101101011011010 '
b11011010 %
05
14
b11011010 *
b11011010 &
#4380000
b11011011 (
b1101101111011011 '
b11011011 %
15
b11011011 *
b11011011 &
#4400000
b11011100 (
b1101110011011100 '
b11011100 %
05
04
13
b11011100 *
b11011100 &
#4420000
b11011101 (
b1101110111011101 '
b11011101 %
15
b11011101 *
b11011101 &
#4440000
b11011110 (
b1101111011011110 '
b11011110 %
05
14
b11011110 *
b11011110 &
#4460000
b11011111 (
b1101111111011111 '
b11011111 %
15
b11011111 *
b11011111 &
#4480000
b11100000 (
b1110000011100000 '
b11100000 %
05
04
03
02
01
10
b11100000 *
b11100000 &
#4500000
b11100001 (
b1110000111100001 '
b11100001 %
15
b11100001 *
b11100001 &
#4520000
b11100010 (
b1110001011100010 '
b11100010 %
05
14
b11100010 *
b11100010 &
#4540000
b11100011 (
b1110001111100011 '
b11100011 %
15
b11100011 *
b11100011 &
#4560000
b11100100 (
b1110010011100100 '
b11100100 %
05
04
13
b11100100 *
b11100100 &
#4580000
b11100101 (
b1110010111100101 '
b11100101 %
15
b11100101 *
b11100101 &
#4600000
b11100110 (
b1110011011100110 '
b11100110 %
05
14
b11100110 *
b11100110 &
#4620000
b11100111 (
b1110011111100111 '
b11100111 %
15
b11100111 *
b11100111 &
#4640000
b11101000 (
b1110100011101000 '
b11101000 %
05
04
03
12
b11101000 *
b11101000 &
#4660000
b11101001 (
b1110100111101001 '
b11101001 %
15
b11101001 *
b11101001 &
#4680000
b11101010 (
b1110101011101010 '
b11101010 %
05
14
b11101010 *
b11101010 &
#4700000
b11101011 (
b1110101111101011 '
b11101011 %
15
b11101011 *
b11101011 &
#4720000
b11101100 (
b1110110011101100 '
b11101100 %
05
04
13
b11101100 *
b11101100 &
#4740000
b11101101 (
b1110110111101101 '
b11101101 %
15
b11101101 *
b11101101 &
#4760000
b11101110 (
b1110111011101110 '
b11101110 %
05
14
b11101110 *
b11101110 &
#4780000
b11101111 (
b1110111111101111 '
b11101111 %
15
b11101111 *
b11101111 &
#4800000
b11110000 (
b1111000011110000 '
b11110000 %
05
04
03
02
11
b11110000 *
b11110000 &
#4820000
b11110001 (
b1111000111110001 '
b11110001 %
15
b11110001 *
b11110001 &
#4840000
b11110010 (
b1111001011110010 '
b11110010 %
05
14
b11110010 *
b11110010 &
#4860000
b11110011 (
b1111001111110011 '
b11110011 %
15
b11110011 *
b11110011 &
#4880000
b11110100 (
b1111010011110100 '
b11110100 %
05
04
13
b11110100 *
b11110100 &
#4900000
b11110101 (
b1111010111110101 '
b11110101 %
15
b11110101 *
b11110101 &
#4920000
b11110110 (
b1111011011110110 '
b11110110 %
05
14
b11110110 *
b11110110 &
#4940000
b11110111 (
b1111011111110111 '
b11110111 %
15
b11110111 *
b11110111 &
#4960000
b11111000 (
b1111100011111000 '
b11111000 %
05
04
03
12
b11111000 *
b11111000 &
#4980000
b11111001 (
b1111100111111001 '
b11111001 %
15
b11111001 *
b11111001 &
#5000000
b11111010 (
b1111101011111010 '
b11111010 %
05
14
b11111010 *
b11111010 &
#5020000
b11111011 (
b1111101111111011 '
b11111011 %
15
b11111011 *
b11111011 &
#5040000
b11111100 (
b1111110011111100 '
b11111100 %
05
04
13
b11111100 *
b11111100 &
#5060000
b11111101 (
b1111110111111101 '
b11111101 %
15
b11111101 *
b11111101 &
#5080000
b11111110 (
b1111111011111110 '
b11111110 %
05
14
b11111110 *
b11111110 &
#5100000
b11111111 (
b1111111111111111 '
b11111111 %
15
b11111111 *
b11111111 &
#5120000
b100000000 (
b10000000000000000 '
b0 %
b1 $
1-
05
04
03
02
01
00
0/
0.
b0 *
b0 &
#5140000
b100000001 (
b10000000100000010 '
b1 %
15
b10 *
b10 &
#5160000
b100000010 (
b10000001000000100 '
b10 %
05
14
b100 *
b100 &
#5180000
b100000011 (
b10000001100000110 '
b11 %
15
b110 *
b110 &
#5200000
b100000100 (
b10000010000001000 '
b100 %
05
04
13
b1000 *
b1000 &
#5220000
b100000101 (
b10000010100001010 '
b101 %
15
b1010 *
b1010 &
#5240000
b100000110 (
b10000011000001100 '
b110 %
05
14
b1100 *
b1100 &
#5260000
b100000111 (
b10000011100001110 '
b111 %
15
b1110 *
b1110 &
#5280000
b100001000 (
b10000100000010000 '
b1000 %
05
04
03
12
b10000 *
b10000 &
#5300000
b100001001 (
b10000100100010010 '
b1001 %
15
b10010 *
b10010 &
#5320000
b100001010 (
b10000101000010100 '
b1010 %
05
14
b10100 *
b10100 &
#5340000
b100001011 (
b10000101100010110 '
b1011 %
15
b10110 *
b10110 &
#5360000
b100001100 (
b10000110000011000 '
b1100 %
05
04
13
b11000 *
b11000 &
#5380000
b100001101 (
b10000110100011010 '
b1101 %
15
b11010 *
b11010 &
#5400000
b100001110 (
b10000111000011100 '
b1110 %
05
14
b11100 *
b11100 &
#5420000
b100001111 (
b10000111100011110 '
b1111 %
15
b11110 *
b11110 &
#5440000
b100010000 (
b10001000000100000 '
b10000 %
05
04
03
02
11
b100000 *
b100000 &
#5460000
b100010001 (
b10001000100100010 '
b10001 %
15
b100010 *
b100010 &
#5480000
b100010010 (
b10001001000100100 '
b10010 %
05
14
b100100 *
b100100 &
#5500000
b100010011 (
b10001001100100110 '
b10011 %
15
b100110 *
b100110 &
#5520000
b100010100 (
b10001010000101000 '
b10100 %
05
04
13
b101000 *
b101000 &
#5540000
b100010101 (
b10001010100101010 '
b10101 %
15
b101010 *
b101010 &
#5560000
b100010110 (
b10001011000101100 '
b10110 %
05
14
b101100 *
b101100 &
#5580000
b100010111 (
b10001011100101110 '
b10111 %
15
b101110 *
b101110 &
#5600000
b100011000 (
b10001100000110000 '
b11000 %
05
04
03
12
b110000 *
b110000 &
#5620000
b100011001 (
b10001100100110010 '
b11001 %
15
b110010 *
b110010 &
#5640000
b100011010 (
b10001101000110100 '
b11010 %
05
14
b110100 *
b110100 &
#5660000
b100011011 (
b10001101100110110 '
b11011 %
15
b110110 *
b110110 &
#5680000
b100011100 (
b10001110000111000 '
b11100 %
05
04
13
b111000 *
b111000 &
#5700000
b100011101 (
b10001110100111010 '
b11101 %
15
b111010 *
b111010 &
#5720000
b100011110 (
b10001111000111100 '
b11110 %
05
14
b111100 *
b111100 &
#5740000
b100011111 (
b10001111100111110 '
b11111 %
15
b111110 *
b111110 &
#5760000
b100100000 (
b10010000001000000 '
b100000 %
05
04
03
02
01
10
b1000000 *
b1000000 &
#5780000
b100100001 (
b10010000101000010 '
b100001 %
15
b1000010 *
b1000010 &
#5800000
b100100010 (
b10010001001000100 '
b100010 %
05
14
b1000100 *
b1000100 &
#5820000
b100100011 (
b10010001101000110 '
b100011 %
15
b1000110 *
b1000110 &
#5840000
b100100100 (
b10010010001001000 '
b100100 %
05
04
13
b1001000 *
b1001000 &
#5860000
b100100101 (
b10010010101001010 '
b100101 %
15
b1001010 *
b1001010 &
#5880000
b100100110 (
b10010011001001100 '
b100110 %
05
14
b1001100 *
b1001100 &
#5900000
b100100111 (
b10010011101001110 '
b100111 %
15
b1001110 *
b1001110 &
#5920000
b100101000 (
b10010100001010000 '
b101000 %
05
04
03
12
b1010000 *
b1010000 &
#5940000
b100101001 (
b10010100101010010 '
b101001 %
15
b1010010 *
b1010010 &
#5960000
b100101010 (
b10010101001010100 '
b101010 %
05
14
b1010100 *
b1010100 &
#5980000
b100101011 (
b10010101101010110 '
b101011 %
15
b1010110 *
b1010110 &
#6000000
b100101100 (
b10010110001011000 '
b101100 %
05
04
13
b1011000 *
b1011000 &
#6020000
b100101101 (
b10010110101011010 '
b101101 %
15
b1011010 *
b1011010 &
#6040000
b100101110 (
b10010111001011100 '
b101110 %
05
14
b1011100 *
b1011100 &
#6060000
b100101111 (
b10010111101011110 '
b101111 %
15
b1011110 *
b1011110 &
#6080000
b100110000 (
b10011000001100000 '
b110000 %
05
04
03
02
11
b1100000 *
b1100000 &
#6100000
b100110001 (
b10011000101100010 '
b110001 %
15
b1100010 *
b1100010 &
#6120000
b100110010 (
b10011001001100100 '
b110010 %
05
14
b1100100 *
b1100100 &
#6140000
b100110011 (
b10011001101100110 '
b110011 %
15
b1100110 *
b1100110 &
#6160000
b100110100 (
b10011010001101000 '
b110100 %
05
04
13
b1101000 *
b1101000 &
#6180000
b100110101 (
b10011010101101010 '
b110101 %
15
b1101010 *
b1101010 &
#6200000
b100110110 (
b10011011001101100 '
b110110 %
05
14
b1101100 *
b1101100 &
#6220000
b100110111 (
b10011011101101110 '
b110111 %
15
b1101110 *
b1101110 &
#6240000
b100111000 (
b10011100001110000 '
b111000 %
05
04
03
12
b1110000 *
b1110000 &
#6260000
b100111001 (
b10011100101110010 '
b111001 %
15
b1110010 *
b1110010 &
#6280000
b100111010 (
b10011101001110100 '
b111010 %
05
14
b1110100 *
b1110100 &
#6300000
b100111011 (
b10011101101110110 '
b111011 %
15
b1110110 *
b1110110 &
#6320000
b100111100 (
b10011110001111000 '
b111100 %
05
04
13
b1111000 *
b1111000 &
#6340000
b100111101 (
b10011110101111010 '
b111101 %
15
b1111010 *
b1111010 &
#6360000
b100111110 (
b10011111001111100 '
b111110 %
05
14
b1111100 *
b1111100 &
#6380000
b100111111 (
b10011111101111110 '
b111111 %
15
b1111110 *
b1111110 &
